[gd_scene load_steps=2 format=2]

[ext_resource path="res://assets/models/blatt.dae" type="PackedScene" id=1]

[node name="Leaf" instance=ExtResource( 1 )]

[node name="Plane" parent="." index="0"]
_sections_unfolded = [ "mesh" ]

