[gd_scene load_steps=2 format=2]

[ext_resource path="res://Mapgenerator.gd" type="Script" id=1]

[node name="Mapgenerator" type="Spatial"]
script = ExtResource( 1 )
_sections_unfolded = [ "Script" ]

[node name="Map" type="Spatial" parent="."]
_sections_unfolded = [ "Matrix", "Transform" ]

[node name="DirectionalLight" type="DirectionalLight" parent="."]
transform = Transform( 0.00734151, -0.660709, 0.750606, -0.464133, 0.662623, 0.587803, -0.885735, -0.352696, -0.301792, 0, 0, 0 )
layers = 1
light_color = Color( 1, 1, 0.94902, 1 )
light_energy = 1.0
light_indirect_energy = 1.0
light_negative = false
light_specular = 0.5
light_bake_mode = 1
light_cull_mask = -1
shadow_enabled = true
shadow_color = Color( 0.0235294, 0.054902, 0.160784, 1 )
shadow_bias = 0.1
shadow_contact = 0.0
shadow_reverse_cull_face = false
editor_only = false
directional_shadow_mode = 2
directional_shadow_split_1 = 0.1
directional_shadow_split_2 = 0.2
directional_shadow_split_3 = 0.5
directional_shadow_blend_splits = false
directional_shadow_normal_bias = 0.8
directional_shadow_bias_split_scale = 0.25
directional_shadow_depth_range = 0
directional_shadow_max_distance = 200.0
_sections_unfolded = [ "Light", "Shadow" ]

[node name="Camera" type="Camera" parent="."]
transform = Transform( 1, 0, 0, 0, -4.37114e-08, 1, 0, -1, -4.37114e-08, 0, 178.136, 0 )
keep_aspect = 1
cull_mask = 1048575
environment = null
h_offset = 0.0
v_offset = 0.0
doppler_tracking = 0
projection = 0
current = false
fov = 70.0
size = 1.0
near = 0.05
far = 384.527

