; Engine configuration file.
; It's best edited using the editor UI and not directly,
; since the parameters that go here are not all obvious.
;
; Format:
;   [section] ; section goes between []
;   param=value ; assign values to parameters

config_version=4

_global_script_classes=[  ]
_global_script_class_icons={

}

[application]

config/name="Gliders On The Storm"
run/main_scene="res://Main.tscn"
config/icon="res://icon.png"

[autoload]

game="*res://game.gd"

[display]

window/size/width=1920
window/size/height=1080

[input]

rotate_up={
"deadzone": 0.5,
"events": [  ]
}
rotate_down={
"deadzone": 0.5,
"events": [  ]
}
jump={
"deadzone": 0.5,
"events": [  ]
}

[rendering]

environment/default_environment="res://default_env.tres"
