<?xml version="1.0" encoding="utf-8"?>
<COLLADA xmlns="http://www.collada.org/2005/11/COLLADASchema" version="1.4.1">
  <asset>
    <contributor>
      <author>Blender User</author>
      <authoring_tool>Blender 2.76.0 commit date:2015-10-11, commit time:06:55, hash:48f7dd6</authoring_tool>
    </contributor>
    <created>2018-09-16T09:27:00</created>
    <modified>2018-09-16T09:27:00</modified>
    <unit name="meter" meter="1"/>
    <up_axis>Z_UP</up_axis>
  </asset>
  <library_images/>
  <library_effects>
    <effect id="Material-effect">
      <profile_COMMON>
        <technique sid="common">
          <phong>
            <emission>
              <color sid="emission">0 0 0 1</color>
            </emission>
            <ambient>
              <color sid="ambient">0 0 0 1</color>
            </ambient>
            <diffuse>
              <color sid="diffuse">0.1301135 0.1301135 0.1301135 1</color>
            </diffuse>
            <specular>
              <color sid="specular">0.5 0.5 0.5 1</color>
            </specular>
            <shininess>
              <float sid="shininess">50</float>
            </shininess>
            <index_of_refraction>
              <float sid="index_of_refraction">1</float>
            </index_of_refraction>
          </phong>
        </technique>
      </profile_COMMON>
    </effect>
  </library_effects>
  <library_materials>
    <material id="Material-material" name="Material">
      <instance_effect url="#Material-effect"/>
    </material>
  </library_materials>
  <library_geometries>
    <geometry id="Cube-mesh" name="Cube">
      <mesh>
        <source id="Cube-mesh-positions">
          <float_array id="Cube-mesh-positions-array" count="564">-1.381641 0.925753 0.5861701 0.8847844 1.285596 0.4271602 1.81564 -0.4372853 0.5065242 0.118174 -1.562222 -1.430094 0.8263321 -0.3596777 -1.182041 0.8210269 -0.412814 2.177101 1.236237 -0.3726734 1.336172 0.1132395 -0.3593243 -1.236483 1.661619 -1.371633 0.5112448 0.1408081 1.116347 0.3666673 0.1133347 0.7098322 -1.345122 0.9063688 0.7476338 1.129003 -0.6912426 0.9360718 1.22985 0.8565585 0.7240378 -1.251115 1.484754 0.8220345 0.4589972 -1.803935 -0.4363045 0.6658234 -1.360695 -0.4554415 -0.7278903 1.284653 0.7538163 -0.6668685 0.1158813 1.055538 -0.6415576 1.229074 -1.216616 -0.7515461 1.286662 -2.023029 0.5159826 1.395375 -0.3996608 -0.7171351 0.7953917 1.111492 -0.6731823 -1.241567 0.7214999 -0.6712162 -1.075406 -2.793611 0.4004169 -0.686539 -2.110411 -0.6626719 -1.452295 -1.731856 0.4219548 -1.122325 -1.562981 -0.6550882 -0.9954082 -1.802464 1.348545 0.7656996 -1.678501 -0.7422299 -0.7641754 -0.377284 2.180139 -1.167151 -0.2424485 1.802408 -0.7040823 0.607478 1.898332 0.2368335 -1.206657 1.880279 -0.8941685 -1.286415 1.844322 0.1849904 0.4658394 1.943691 0.07650357 -0.434358 2.228667 0.2926992 -1.966214 1.65239 0.130048 -2.196648 -0.7362361 0.2365627 -3.089907 0.4544188 -0.6726943 1.022235 -0.6775954 0.2078638 0.9867793 1.328661 -0.7033647 0.6496553 -1.261009 -0.7627501 1.31261 0.4690397 -0.6726723 -0.3930773 -1.223399 -0.7673788 -1.548611 -1.244372 -1.07391 -0.4194985 -1.08336 -1.705335 -1.263029 0.5680525 -1.048369 0.8917498 1.059005 -1.071583 0.9691 -0.6746984 -0.6961171 0.9426174 -1.105783 0.9019582 1.089834 0.9162172 1.106681 1.025519 -0.6635771 1.079311 0.707035 -1.075319 1.610169 -0.3781737 1.03553 1.384533 -0.9692814 -0.7267333 0.9067348 -0.8845379 -1.111973 -0.9965418 -1.439331 1.534129 0.8343558 1.019177 -1.052343 0.1677874 1.018656 0.8938953 0.1134613 -0.9508203 -1.233239 1.523371 -1.040469 1.186865 1.106707 -0.3675226 2.014011 0.5041474 -0.3830041 -1.269576 0.8283557 -1.322501 -0.7330304 0.4663125 1.090632 -0.6480845 -1.022398 0.6578509 -1.12956 -1.303182 -0.2665705 1.222585 1.144119 -0.36854 -1.052922 1.208366 0.7531858 0.9411448 0.6227321 0.8679938 1.308227 0.4834554 0.6727802 -1.234309 -0.656139 0.1797297 -1.203666 1.084941 0.2739875 1.287127 0.2467519 0.7675907 1.650256 0.7891915 0.207701 -1.177896 1.293107 0.2228024 -0.672297 -1.220419 0.2128664 -0.6683422 -1.357414 -1.154324 -0.706062 -1.163097 1.1837 0.5300791 1.208769 1.149065 0.4461265 1.771454 -1.013781 0.4721259 1.471307 -1.625737 0.5554408 0.5508688 1.338321 0.4097443 1.754836 0.2424358 0.5475558 -1.644628 0.3826224 0.686064 -1.699904 -0.4670755 -0.1684581 1.451205 0.7926276 -0.196483 0.1216143 1.119432 -0.2094907 1.554511 -1.400554 -0.2229585 0.9214463 -1.999857 1.375566 1.680166 -0.4129072 -0.2100405 0.7306015 1.067294 -0.2212794 -1.386203 0.8132291 -0.1586508 -1.262735 -2.162505 0.3682434 -1.062142 -2.438506 1.1311 0.1288592 -2.011398 -1.24082 0.5235375 -2.078811 -0.7590829 -0.9669221 -1.982835 -0.6560264 0.9890366 -2.852967 0.459239 -0.9026762 -2.561046 -0.2707657 1.20362 -1.935108 -0.2280539 0.6147843 -1.633563 -1.304638 -0.9441209 -1.510009 -0.9681855 -1.334542 -1.69893 -0.2168422 -1.278494 -1.684383 1.061796 -0.7604176 -1.020722 2.097273 0.4595313 -0.440683 2.11156 -1.0455 -0.3147921 2.11213 0.08500576 0.07931709 2.125714 0.6092373 0.2120575 2.078487 0.6832376 -1.123044 2.015765 -1.198643 -0.9290243 1.803374 -1.00683 0.3047112 1.829174 0.4878338 1.204677 -0.2814866 0.1147359 0.9740972 -1.034393 0.3112061 -1.482569 1.760409 -0.6759961 1.092117 0.9482749 -0.7721611 -1.05464 -1.287342 0.1100404 0.1949336 -1.503733 -0.706157 0.7763354 1.49455 -0.6159138 1.013847 -0.2111538 0.2207534 -2.752266 1.329953 -0.7085083 -1.922224 -1.008922 0.1809543 -2.788372 -0.3238921 0.1331538 -0.9539778 2.064192 -0.7413143 0.1731359 2.11922 -0.4444748 -1.252662 1.867578 -0.3588128 0.5755777 1.905385 -0.3080573 -0.4151534 2.211922 -0.5009905 -1.988589 1.670434 -0.3317112 -2.233037 -0.7442808 -0.4667468 -3.051843 0.4483887 -0.2562479 1.010274 -0.6441103 -0.3251725 0.9865067 1.304425 -0.2809846 0.6654993 -1.327152 -0.2659219 1.142587 0.3901465 -0.2762102 -0.3672195 -1.267805 -0.3879846 -1.57676 -1.42023 -1.055675 -1.064681 -1.022421 -1.377104 -1.140686 1.273198 -0.9601295 0.896622 -1.044886 -1.008829 1.083371 0.9222027 1.17623 -0.8108801 -1.018684 1.688602 -0.8550609 0.9577435 1.002392 0.9445865 -0.9590374 1.118552 1.06676 0.8619026 0.4804773 0.9696723 -0.9884813 0.5230714 1.074566 0.9245902 0.6596565 -1.084497 -1.266498 1.048266 -1.348863 1.527991 -0.9608442 0.1845431 -1.021808 -1.0428 0.5063757 1.202061 1.019648 0.2147324 -0.9943431 1.44528 0.2286832 1.01812 0.7713478 0.5279395 1.888013 0.4783447 0.1929838 -1.319242 -1.607846 -1.256311 -0.1914538 -1.065232 1.010697 -0.1913084 1.106153 1.025139 -0.2141678 1.626723 -1.038846 -0.2076531 1.394501 -1.639385 -0.2174816 0.4878301 1.204789 -0.28134 1.693377 0.268382 -0.1927105 -1.676869 0.3117411 -0.1403349 -1.152321 -2.158812 -0.2354087 -1.260524 -2.096669 0.9144799 0.7308735 -2.692791 1.234329 -0.8620312 -1.802063 -0.8556508 0.4826706 -1.986677 -1.189912 0.8197035 -2.543792 -0.2922023 0.4424183 -0.9200233 2.134794 -1.009067 -0.854979 2.080041 0.3951329 -6.15942e-4 2.105184 -0.9765555 0.09356069 2.081994 0.4878338 1.204677 -0.2814866 -0.2651338 0.9418423 -1.043751 -0.5048998 -1.519843 1.729298 -0.2605758 1.035403 0.9145747 -0.3159284 -0.9854913 -1.293061 -0.2806477 0.1796826 -1.423755 -0.3477108 0.8306876 1.583306 -0.2494658 1.071201 -0.2082611 -0.53044 -2.753142 1.324398 -0.3926371 -2.036745 -1.183527 -0.4399788 -2.76591 -0.3059402 -0.3760836 -1.008585 2.106258 -0.3400412 0.1444891 2.117561</float_array>
          <technique_common>
            <accessor source="#Cube-mesh-positions-array" count="188" stride="3">
              <param name="X" type="float"/>
              <param name="Y" type="float"/>
              <param name="Z" type="float"/>
            </accessor>
          </technique_common>
        </source>
        <source id="Cube-mesh-normals">
          <float_array id="Cube-mesh-normals-array" count="1104">-0.8652881 0.5011901 -0.009229898 -0.6376343 0.4267069 0.6413608 -0.6843963 0.5118907 0.5192011 -0.5246657 0.8089534 -0.2651801 0.5204487 0.8282934 -0.207517 0.115312 0.8815293 0.457831 0.1875014 0.9141735 0.3593467 0.3894155 0.892395 -0.2280062 0.9824037 -0.01431286 -0.1862207 0.8088256 0.2352273 0.5389519 0.9314272 0.09592962 0.3510569 0.9752437 -0.08404624 -0.2045385 -0.02515727 0.2131322 -0.9766995 0.01707518 0.3065545 -0.9517 0.1786706 -0.3638551 -0.9141588 -0.07529658 -0.4556602 -0.8869636 0.4155316 -0.0596472 -0.9076209 0.6214748 0.04639613 -0.7820593 0.3384687 -0.04816728 -0.9397441 0.4681996 0.09994024 -0.8779529 0.6558097 -0.3660485 0.660244 0.4426747 0.2853947 0.8500523 -0.02372312 0.1479916 0.988704 -0.1821715 0.05409252 0.9817778 0.6169283 0.189539 0.7638549 0.8782261 0.3713138 0.3014053 0.9708634 -0.150266 0.186667 0.7977864 0.03301078 0.602036 0.08262068 -0.2726636 -0.9585554 0.409931 -0.3942331 -0.8225186 -0.06536912 -0.01886814 -0.9976828 0.1354004 0.03175359 -0.990282 0.9728159 -0.1885245 -0.1344911 0.9341739 -0.2600114 0.244363 0.6916255 -0.5572487 0.4594868 0.8278283 -0.5562848 -0.07243984 -0.1288523 0.9916174 0.009601891 0.04789656 0.9787175 0.1995444 -0.1685071 0.9676226 0.1879149 -0.4617723 0.8777893 -0.1274852 -0.1118106 0.7145954 -0.6905446 0.1037839 0.6349326 -0.7655649 0.2979332 0.1633136 -0.940513 -0.2040112 0.1907919 -0.9601968 0.2621185 0.3063346 0.9151247 -0.0247758 0.8775008 0.4789347 0.782518 0.6034477 0.1533505 0.5851609 0.3701968 0.7214854 0.1454828 0.9784059 0.1468219 -0.07845395 0.5899235 0.8036388 -0.4414604 0.3066475 0.8432557 -0.2430775 0.8550272 0.458085 -0.1213344 0.6323246 -0.7651429 0.5791381 0.4849201 -0.6553257 0.614151 -0.2000018 -0.7634252 0.4027969 0.1553799 -0.9020044 0.5513322 0.8002474 -0.235875 0.7277885 0.6252775 0.2816952 0.7616431 0.4168393 0.49613 0.9082692 0.4139305 -0.06089884 -0.9855812 -0.1112462 -0.1274917 -0.8845603 -0.157422 0.4390576 -0.6597898 0.2411616 0.7117013 -0.9814645 0.1903819 0.02196079 -0.7716698 -0.08138984 -0.6307944 -0.8883147 -0.09049749 -0.4502301 -0.7514311 0.04599344 -0.6582067 -0.7807191 0.2062454 -0.589865 0.768878 0.4642016 -0.4397086 0.836525 0.547927 0.001446068 0.7109683 0.3239361 -0.6241711 0.7500582 -0.1948583 -0.6320151 -0.07935094 0.9828382 -0.166531 -0.1187117 0.9836188 -0.1356522 -0.2504807 0.958182 -0.1383712 -0.1000334 0.9362288 -0.336852 0.4005284 -0.4669162 -0.7883949 0.8864364 -0.1585701 -0.4348404 0.6730285 -0.4641185 -0.5758702 0.7143771 -0.5265845 -0.460841 0.8324537 -0.5317558 -0.1557457 0.8521401 -0.2708465 0.4477719 0.8700049 -0.3163521 0.3781706 0.8969513 -0.2994146 -0.3253146 0.7405416 0.2217428 -0.6343724 0.7676705 0.00141555 -0.6408433 0.8993551 -0.07842749 -0.4301276 0.8125767 -0.005644738 -0.582827 -0.178255 0.9516885 -0.2500283 0.5246446 0.8036336 -0.2809292 0.1087456 0.987718 0.1121951 0.260129 0.9039472 -0.3394293 -0.7928753 -0.23145 -0.5637197 -0.7592945 -0.03524118 -0.6497924 -0.5226329 0.8013955 -0.2908954 -0.778127 0.5294524 -0.3379331 -0.3974123 -0.8306034 -0.3900787 -0.3939805 -0.8783082 0.2708398 -0.8794777 -0.4720846 0.06045836 -0.8451753 -0.5106903 -0.1577151 -0.4691727 -0.8286747 -0.3052461 -0.3625814 -0.5470082 -0.7545308 -0.6213368 -0.3228746 -0.7139276 -0.3005967 -0.6230267 -0.7221354 -0.8347934 -0.3243775 0.4448587 -0.8887621 -0.4429205 -0.1179981 -0.9184515 -0.3570523 -0.1701777 -0.9115309 -0.4078225 0.05284291 -0.76642 -0.446768 -0.461518 -0.6636098 -0.2520157 -0.7043509 -0.7620999 -0.4079412 -0.5027802 -0.8180565 -0.3044427 -0.4879531 -0.5704535 -0.1070185 0.8143278 -0.7040082 -0.3646464 0.6094306 -0.7385532 -0.2551706 0.6240411 -0.4934552 -0.3427892 0.7993733 0.9447486 -0.0547595 -0.3231898 0.6413455 -0.09319722 -0.7615709 0.6242766 -0.3185784 -0.7132927 0.8439197 -0.502622 -0.1875385 -0.05511349 0.1629472 0.9850943 -0.1933649 0.1158609 0.9742619 -0.2498724 -0.07420271 0.9654314 -0.01914489 -0.1278176 0.9916129 -0.9347764 0.3190459 0.1562144 -0.9543471 0.09706372 0.2824894 -0.8291125 0.03881442 0.5577329 -0.9002309 0.1812102 0.3959132 0.05951809 0.7815021 0.6210572 -0.7278382 0.6395605 0.2474145 -0.3368334 0.7024369 0.6269975 0.03529888 0.4425573 0.8960452 -0.01301288 -0.4572793 0.889228 0.3195961 -0.7458314 0.5844603 -0.1243345 -0.607464 0.7845562 0.1332951 -0.7117593 0.6896601 -0.7215187 -0.5243358 0.4521976 -0.3304083 -0.798758 0.5028082 0.005405545 -0.699921 0.7141999 -0.398487 -0.5192059 0.7560644 0.02835625 0.5054592 0.8623846 0.01321935 0.7836009 0.621124 0.02612054 0.4423604 0.896457 0.159739 0.3864533 0.9083707 0.2927662 0.05667167 0.9545032 0.006635963 0.1666286 0.9859974 0.1006445 -0.1855798 0.9774614 -0.2279892 0.05525881 0.9720944 0.334244 -0.2761065 0.9011361 -0.02729302 -0.2168976 0.9758128 -0.006257653 -0.4121256 0.9111056 0.2132953 -0.3874236 0.896888 0.1144487 -0.9324785 -0.3426155 0.1516256 -0.6505964 -0.744133 -0.04519259 -0.6291376 -0.7759791 0.07864588 -0.9060463 -0.4158065 0.3491232 -0.8651202 -0.3601112 0.28628 -0.9149545 0.2844328 -0.001282632 -0.9465175 0.3226498 -0.04405045 -0.9336498 -0.3554685 -0.2066594 0.9638953 -0.1679224 -0.1321763 0.9877232 -0.08326065 -0.1521885 0.9791561 -0.1345069 0.0419107 0.9846327 -0.1695348 0.2703564 0.8752505 0.4010538 0.04230642 0.9967068 0.06917947 -0.02255511 0.8735309 0.4862459 0.1874812 0.8675031 0.4607487 -0.3418331 0.392024 -0.8540886 0.1016581 0.709409 -0.6974271 -0.4984064 0.1687473 -0.850362 -0.5081434 -0.1544588 -0.8473091 -0.02435433 0.9133566 -0.4064319 -0.2435556 0.9122949 0.3292397 0.1482641 0.9692134 0.1965789 -0.1525563 0.9808346 -0.121203 -0.3346388 0.1573177 -0.9291222 -0.4905861 -0.2426332 -0.8369317 -0.1142646 0.04787451 -0.9922962 -0.6784223 -0.08806556 -0.7293749 -0.6561183 -0.2510325 -0.7116822 -0.04485607 0.2152797 -0.9755217 -0.4078471 -0.4145118 -0.8135361 -0.7846639 -0.4142714 -0.4611743 -0.9026844 0.4262577 -0.05886834 -0.7937059 0.2015804 0.5739307 -0.6464204 0.6385013 0.4176803 -0.7694749 0.6321905 -0.09079551 0.1638874 0.9224806 -0.3495291 -0.02915143 0.9276373 0.3723433 0.3626246 0.896066 0.2560651 0.1112426 0.9335535 -0.3407388 0.9924654 0.093557 -0.07911801 0.932681 0.06198275 0.3553371 0.9769877 -0.08651596 0.1949619 0.9801834 -0.06394058 -0.1874893 0.107153 0.3054637 -0.9461556 0.2509598 0.04665172 -0.9668728 0.1576949 -0.3802688 -0.9113332 -0.006801366 -0.3884441 -0.9214473 0.2604821 0.02410364 -0.9651778 0.3749475 0.1715112 -0.9110425 0.3740124 -0.06620055 -0.925058 0.2670618 -0.08721238 -0.959725 0.5089485 -0.2833793 0.8128146 0.4410546 0.2838527 0.8514099 -0.1775108 -0.0117194 0.9840492 0.2431932 -0.2594912 0.9346237 0.6021802 0.1995177 0.7730276 0.9545657 0.2370326 0.1806098 0.5585063 0.05509126 0.8276688 0.6245961 0.09525799 0.7751166 -0.1650378 -0.4291407 -0.888032 -0.08939802 -0.08953934 -0.991963 -0.0846827 -0.005497038 -0.9963929 0.08027613 -0.005437135 -0.9967579 0.9331247 -0.3068824 -0.1873544 0.8711806 -0.346311 0.3480133 0.7648055 -0.5027249 0.402915 0.7893835 -0.6070817 -0.0912441 0.05723118 0.9915159 -0.116708 0.07358545 0.9812654 0.1780545 -0.4706557 0.7953215 0.3820303 -0.2246134 0.9743652 0.01269948 -0.04867756 0.7609683 -0.6469604 0.2610027 0.7347776 -0.6260827 0.4332424 0.2627975 -0.8621128 -0.07647001 0.2939785 -0.9527482 0.4589666 0.4734091 0.7518202 0.6055231 0.425853 0.6723029 0.6056522 0.4479095 0.6576949 0.4701352 0.4338438 0.7686042 -0.2130833 0.8594244 0.4647423 -0.3174085 0.8366181 0.4464552 -0.744783 0.5890712 0.313518 -0.2168142 0.8411726 0.4953993 -0.2219123 0.5331428 -0.8164029 0.558606 0.5035144 -0.659115 0.5994955 -0.1885213 -0.7778592 -0.02577406 -0.1370571 -0.9902278 0.7637816 0.6418946 -0.06788992 0.7890582 0.353049 0.5027362 0.7498036 0.4266638 0.5057199 0.9060702 0.4180845 -0.06513208 -0.9874319 -0.1036575 -0.1193041 -0.7548526 0.1013574 0.6480156 -0.7566514 0.1313612 0.6404865 -0.9915929 0.03383898 -0.1248942 -0.7198501 -0.02504545 -0.6936777 -0.8547286 -0.02021306 -0.5186815 -0.8361133 0.2202622 -0.5023934 -0.7705745 0.2151954 -0.5999218 0.7618479 0.5039589 -0.4069563 0.5487416 0.7945801 -0.2598558 0.9420155 0.01842182 -0.3350636 0.8924232 0.01881635 -0.450807 -0.116913 0.9725315 -0.2012805 -0.1280243 0.9813461 -0.1434217 -0.100708 0.9516207 -0.2903033 0.03731614 0.9784753 -0.2029621 0.6623888 -0.3498806 -0.6624385 0.7161224 -0.3921878 -0.5773712 0.1676699 -0.7470347 -0.6432931 0.1409372 -0.662086 -0.7360563 0.9068475 -0.4132418 -0.08281809 0.8302434 -0.4220283 0.3641265 0.87031 -0.336679 0.3594549 0.8428824 -0.5153011 -0.1549649 0.7962593 0.172587 -0.5798144 0.8602783 0.1758106 -0.4785519 0.871782 -0.00833863 -0.4898231 0.8011382 0.01184308 -0.5983623 -0.08512622 0.9377323 -0.3367663 -0.05623298 0.9944254 0.08919763 0.2661847 0.9639215 0.001129329 0.4741127 0.8654348 -0.1619871 -0.9035922 -0.03997915 -0.4265242 -0.8256559 0.4669941 -0.3165578 -0.8240752 0.5652172 -0.03781121 -0.8171477 0.369883 -0.4421046 -0.343731 -0.873993 -0.34349 -0.5689634 -0.7355341 0.3677911 -0.949804 -0.2742524 0.1505263 -0.900205 -0.2840316 -0.3300863 -0.3813402 -0.8221601 -0.4226494 -0.2990829 -0.5404721 -0.7864091 -0.3700543 -0.7876338 -0.4926388 -0.7489845 -0.6009418 -0.2790901 -0.8137038 -0.5200828 0.2596154 -0.8413749 -0.5091221 -0.1813371 -0.9075406 -0.3761914 -0.1866819 -0.9532051 -0.137714 0.2691379 -0.7231023 -0.4781578 -0.4984861 -0.7255844 -0.4790288 -0.494023 -0.7306345 -0.2690316 -0.6275311 -0.8180276 -0.3016874 -0.4897097 -0.393452 -0.4193472 0.8181343 -0.7373425 -0.3092371 0.6005819 -0.813335 -0.1099784 0.5713064 -0.5871902 -0.2060078 0.7827953 0.9500625 -0.160292 -0.2677457 0.6091349 -0.368063 -0.7024844 0.6217011 -0.3465174 -0.7024339 0.8710286 -0.412534 -0.2666925 0.01192516 0.1095092 0.9939143 -0.2110306 0.1073309 0.971569 -0.1526509 -0.127111 0.9800717 -0.08222705 -0.1655613 0.9827656 -0.9410315 0.2654678 0.2097301 -0.9729961 0.04494851 0.2264031 -0.9340103 -0.08362722 0.3473201 -0.9133598 0.2519742 0.319817 -0.2293349 0.8975684 0.3765322 -0.7105873 0.6478269 0.2745656 -0.5723809 0.4101583 0.7100355 0.02350157 0.4515786 0.8919218 0.009642302 -0.3962644 0.9180858 -0.1864461 -0.4333302 0.8817386 -0.1109341 -0.614198 0.7813158 0.02413094 -0.5818136 0.8129642 -0.6904275 -0.5320429 0.4901431 -0.01164096 -0.4575327 0.8891167 0.01478064 -0.6933441 0.7204551 -0.6525756 -0.4897046 0.5782168 -0.005881607 0.6977657 0.716302 0.08734911 0.6852479 0.7230529 0.04632359 0.415756 0.9082958 -0.1443791 0.2650249 0.9533711 0.1143561 0.1934061 0.9744315 -0.03283143 0.1969317 0.9798674 -0.056692 -0.3068997 0.950052 0.2781924 -0.2621614 0.9240566 0.383837 -0.2152427 0.8979642 0.02605617 -0.1243423 0.9918972 0.03176385 -0.3818052 0.9236969 0.3737802 -0.2828447 0.8833388 0.2674271 -0.9367724 -0.2256997 0.2465887 -0.5397037 -0.804931 0.05901718 -0.5673083 -0.8213881 0.007761478 -0.9387 -0.344648 0.2752557 -0.8656498 -0.4181925 0.1739332 -0.9177449 0.3570597 -0.05351501 -0.932012 0.3584547 -0.04740232 -0.9325537 -0.3579061 -0.1301871 0.9648926 -0.2281091 -0.006181895 0.9998055 0.01873081 0.02753078 0.9995141 0.01462143 0.02828347 0.9824764 -0.1842292 -0.1621965 0.9829142 0.08701843 -0.006120383 0.9923323 0.123448 0.02464699 0.8274571 0.5609878 0.2583792 0.81252 0.5225434 -0.2746763 0.4554784 -0.8468132 -0.1539399 0.4655795 -0.8715149 -0.1483805 -0.1344642 -0.9797463 -0.374198 -0.2518483 -0.8924955 -0.3317714 0.9061539 -0.2623221 -0.05708342 0.903013 0.425804 0.3523218 0.872794 0.337787 0.2551517 0.9043456 -0.3421357 -0.5114763 0.04432606 -0.8581534 -0.1136457 0.0374822 -0.9928141 -0.02766734 0.1002906 -0.9945735 -0.3344876 0.1403729 -0.931887 -0.8444851 -0.05452316 -0.5327968 -0.4241412 -0.08255535 -0.9018254 -0.5505229 -0.5054558 -0.6644088 -0.7966819 -0.3988934 -0.4540729</float_array>
          <technique_common>
            <accessor source="#Cube-mesh-normals-array" count="368" stride="3">
              <param name="X" type="float"/>
              <param name="Y" type="float"/>
              <param name="Z" type="float"/>
            </accessor>
          </technique_common>
        </source>
        <vertices id="Cube-mesh-vertices">
          <input semantic="POSITION" source="#Cube-mesh-positions"/>
        </vertices>
        <lines count="2">
          <input semantic="VERTEX" source="#Cube-mesh-vertices" offset="0"/>
          <p>114 162 175 114</p>
        </lines>
        <polylist material="Material-material" count="368">
          <input semantic="VERTEX" source="#Cube-mesh-vertices" offset="0"/>
          <input semantic="NORMAL" source="#Cube-mesh-normals" offset="1"/>
          <vcount>3 3 3 3 3 3 3 3 3 3 3 3 3 3 3 3 3 3 3 3 3 3 3 3 3 3 3 3 3 3 3 3 3 3 3 3 3 3 3 3 3 3 3 3 3 3 3 3 3 3 3 3 3 3 3 3 3 3 3 3 3 3 3 3 3 3 3 3 3 3 3 3 3 3 3 3 3 3 3 3 3 3 3 3 3 3 3 3 3 3 3 3 3 3 3 3 3 3 3 3 3 3 3 3 3 3 3 3 3 3 3 3 3 3 3 3 3 3 3 3 3 3 3 3 3 3 3 3 3 3 3 3 3 3 3 3 3 3 3 3 3 3 3 3 3 3 3 3 3 3 3 3 3 3 3 3 3 3 3 3 3 3 3 3 3 3 3 3 3 3 3 3 3 3 3 3 3 3 3 3 3 3 3 3 3 3 3 3 3 3 3 3 3 3 3 3 3 3 3 3 3 3 3 3 3 3 3 3 3 3 3 3 3 3 3 3 3 3 3 3 3 3 3 3 3 3 3 3 3 3 3 3 3 3 3 3 3 3 3 3 3 3 3 3 3 3 3 3 3 3 3 3 3 3 3 3 3 3 3 3 3 3 3 3 3 3 3 3 3 3 3 3 3 3 3 3 3 3 3 3 3 3 3 3 3 3 3 3 3 3 3 3 3 3 3 3 3 3 3 3 3 3 3 3 3 3 3 3 3 3 3 3 3 3 3 3 3 3 3 3 3 3 3 3 3 3 3 3 3 3 3 3 3 3 3 3 3 3 3 3 3 3 3 3 3 3 3 3 3 3 3 3 3 3 3 3 3 3 3 3 3 3 3 3 3 3 3 3 </vcount>
          <p>93 0 164 0 85 0 0 1 85 1 152 1 0 2 48 2 142 2 79 3 158 3 93 3 92 4 162 4 83 4 1 5 83 5 148 5 1 6 51 6 146 6 1 7 80 7 159 7 2 8 91 8 163 8 84 9 154 9 54 9 2 10 54 10 144 10 81 11 160 11 91 11 3 12 138 12 179 12 3 13 60 13 149 13 3 14 102 14 169 14 96 15 184 15 138 15 63 16 156 16 75 16 4 17 75 17 153 17 68 18 143 18 56 18 56 19 149 19 63 19 111 20 150 20 62 20 62 21 155 21 110 21 5 22 110 22 173 22 5 23 107 23 171 23 6 24 54 24 154 24 73 25 155 25 62 25 6 26 62 26 150 26 61 27 144 27 54 27 7 28 137 28 180 28 7 29 119 29 156 29 63 30 149 30 60 30 60 31 179 31 137 31 8 32 89 32 160 32 8 33 81 33 144 33 61 34 150 34 82 34 82 35 161 35 89 35 9 36 88 36 182 36 136 37 178 37 59 37 9 38 59 38 148 38 9 39 83 39 162 39 10 40 135 40 176 40 115 41 147 41 71 41 10 42 71 42 156 42 119 43 180 43 135 43 69 44 146 44 51 44 51 45 148 45 70 45 70 46 155 46 73 46 73 47 154 47 69 47 134 48 178 48 117 48 117 49 142 49 48 49 12 50 48 50 152 50 120 51 181 51 134 51 13 52 71 52 147 52 13 53 58 53 145 53 53 54 153 54 75 54 75 55 156 55 71 55 87 56 159 56 80 56 14 57 80 57 146 57 14 58 69 58 154 58 14 59 84 59 163 59 86 60 157 60 47 60 15 61 47 61 140 61 67 62 152 62 85 62 15 63 85 63 164 63 16 64 46 64 139 64 78 65 157 65 86 65 86 66 164 66 77 66 77 67 151 67 46 67 17 68 53 68 145 68 17 69 52 69 159 69 87 70 163 70 76 70 76 71 153 71 53 71 115 72 176 72 133 72 18 73 133 73 182 73 18 74 88 74 162 74 18 75 65 75 147 75 19 76 56 76 143 76 55 77 160 77 89 77 19 78 89 78 161 78 64 79 149 79 56 79 20 80 101 80 161 80 82 81 150 81 90 81 20 82 90 82 167 82 20 83 99 83 170 83 68 84 153 84 76 84 76 85 163 85 91 85 91 86 160 86 55 86 21 87 55 87 143 87 22 88 58 88 147 88 65 89 162 89 92 89 22 90 92 90 159 90 22 91 52 91 145 91 66 92 151 92 77 92 23 93 77 93 164 93 23 94 93 94 158 94 23 95 49 95 141 95 24 96 100 96 185 96 24 97 132 97 183 97 95 98 166 98 94 98 94 99 165 99 100 99 123 100 184 100 131 100 25 101 131 101 185 101 25 102 100 102 165 102 25 103 98 103 168 103 105 104 140 104 47 104 26 105 47 105 157 105 104 106 165 106 94 106 26 107 94 107 166 107 104 108 157 108 78 108 78 109 139 109 103 109 27 110 103 110 168 110 98 111 165 111 104 111 28 112 130 112 177 112 57 113 140 113 105 113 28 114 105 114 166 114 95 115 183 115 130 115 102 116 149 116 64 116 29 117 64 117 161 117 101 118 170 118 97 118 29 119 97 119 169 119 30 120 129 120 187 120 30 121 126 121 174 121 30 122 108 122 172 122 30 123 106 123 186 123 113 124 152 124 67 124 67 125 140 125 112 125 31 126 112 126 172 126 31 127 108 127 174 127 32 128 128 128 181 128 120 129 152 129 113 129 113 130 174 130 126 130 126 131 187 131 128 131 127 132 177 132 116 132 116 133 150 133 111 133 33 134 111 134 171 134 125 135 186 135 127 135 112 136 140 136 57 136 34 137 57 137 177 137 127 138 186 138 106 138 34 139 106 139 172 139 35 140 110 140 155 140 74 141 181 141 128 141 35 142 128 142 187 142 35 143 109 143 173 143 36 144 107 144 173 144 109 145 187 145 129 145 129 146 186 146 125 146 125 147 171 147 107 147 90 148 150 148 116 148 37 149 116 149 177 149 130 150 183 150 122 150 37 151 122 151 167 151 38 152 96 152 169 152 38 153 97 153 170 153 124 154 185 154 131 154 38 155 131 155 184 155 39 156 124 156 170 156 39 157 99 157 167 157 122 158 183 158 132 158 132 159 185 159 124 159 40 160 50 160 141 160 40 161 49 161 158 161 121 162 182 162 133 162 40 163 133 163 176 163 41 164 70 164 148 164 41 165 59 165 178 165 41 166 134 166 181 166 74 167 155 167 70 167 42 168 66 168 141 168 50 169 176 169 135 169 135 170 180 170 72 170 42 171 72 171 151 171 43 172 121 172 158 172 43 173 79 173 142 173 117 174 178 174 136 174 136 175 182 175 121 175 44 176 46 176 151 176 72 177 180 177 137 177 44 178 137 178 179 178 118 179 139 179 46 179 103 180 139 180 118 180 118 181 179 181 138 181 45 182 138 182 184 182 45 183 123 183 168 183 0 184 93 184 85 184 48 185 0 185 152 185 79 186 0 186 142 186 0 187 79 187 93 187 1 188 92 188 83 188 51 189 1 189 148 189 80 190 1 190 146 190 92 191 1 191 159 191 84 192 2 192 163 192 2 193 84 193 54 193 81 194 2 194 144 194 2 195 81 195 91 195 60 196 3 196 179 196 102 197 3 197 149 197 96 198 3 198 169 198 3 199 96 199 138 199 4 200 63 200 75 200 68 201 4 201 153 201 4 202 68 202 56 202 4 203 56 203 63 203 5 204 111 204 62 204 5 205 62 205 110 205 107 206 5 206 173 206 111 207 5 207 171 207 73 208 6 208 154 208 6 209 73 209 62 209 61 210 6 210 150 210 6 211 61 211 54 211 119 212 7 212 180 212 63 213 7 213 156 213 7 214 63 214 60 214 7 215 60 215 137 215 81 216 8 216 160 216 61 217 8 217 144 217 8 218 61 218 82 218 8 219 82 219 89 219 136 220 9 220 182 220 9 221 136 221 59 221 83 222 9 222 148 222 88 223 9 223 162 223 115 224 10 224 176 224 10 225 115 225 71 225 119 226 10 226 156 226 10 227 119 227 135 227 11 228 69 228 51 228 11 229 51 229 70 229 11 230 70 230 73 230 11 231 73 231 69 231 12 232 134 232 117 232 12 233 117 233 48 233 120 234 12 234 152 234 12 235 120 235 134 235 58 236 13 236 147 236 53 237 13 237 145 237 13 238 53 238 75 238 13 239 75 239 71 239 14 240 87 240 80 240 69 241 14 241 146 241 84 242 14 242 154 242 87 243 14 243 163 243 15 244 86 244 47 244 67 245 15 245 140 245 15 246 67 246 85 246 86 247 15 247 164 247 78 248 16 248 139 248 16 249 78 249 86 249 16 250 86 250 77 250 16 251 77 251 46 251 52 252 17 252 145 252 87 253 17 253 159 253 17 254 87 254 76 254 17 255 76 255 53 255 18 256 115 256 133 256 88 257 18 257 182 257 65 258 18 258 162 258 115 259 18 259 147 259 55 260 19 260 143 260 19 261 55 261 89 261 64 262 19 262 161 262 19 263 64 263 56 263 82 264 20 264 161 264 20 265 82 265 90 265 99 266 20 266 167 266 101 267 20 267 170 267 21 268 68 268 76 268 21 269 76 269 91 269 21 270 91 270 55 270 68 271 21 271 143 271 65 272 22 272 147 272 22 273 65 273 92 273 52 274 22 274 159 274 58 275 22 275 145 275 23 276 66 276 77 276 93 277 23 277 164 277 49 278 23 278 158 278 66 279 23 279 141 279 132 280 24 280 185 280 95 281 24 281 183 281 24 282 95 282 94 282 24 283 94 283 100 283 25 284 123 284 131 284 100 285 25 285 185 285 98 286 25 286 165 286 123 287 25 287 168 287 26 288 105 288 47 288 104 289 26 289 157 289 26 290 104 290 94 290 105 291 26 291 166 291 27 292 104 292 78 292 27 293 78 293 103 293 98 294 27 294 168 294 27 295 98 295 104 295 57 296 28 296 177 296 28 297 57 297 105 297 95 298 28 298 166 298 28 299 95 299 130 299 29 300 102 300 64 300 101 301 29 301 161 301 29 302 101 302 97 302 102 303 29 303 169 303 126 304 30 304 187 304 108 305 30 305 174 305 106 306 30 306 172 306 129 307 30 307 186 307 31 308 113 308 67 308 31 309 67 309 112 309 108 310 31 310 172 310 113 311 31 311 174 311 120 312 32 312 181 312 32 313 120 313 113 313 32 314 113 314 126 314 32 315 126 315 128 315 33 316 127 316 116 316 33 317 116 317 111 317 125 318 33 318 171 318 33 319 125 319 127 319 34 320 112 320 57 320 127 321 34 321 177 321 34 322 127 322 106 322 112 323 34 323 172 323 74 324 35 324 155 324 35 325 74 325 128 325 109 326 35 326 187 326 110 327 35 327 173 327 109 328 36 328 173 328 36 329 109 329 129 329 36 330 129 330 125 330 36 331 125 331 107 331 37 332 90 332 116 332 130 333 37 333 177 333 37 334 130 334 122 334 90 335 37 335 167 335 97 336 38 336 169 336 124 337 38 337 170 337 38 338 124 338 131 338 96 339 38 339 184 339 99 340 39 340 170 340 122 341 39 341 167 341 39 342 122 342 132 342 39 343 132 343 124 343 49 344 40 344 141 344 121 345 40 345 158 345 40 346 121 346 133 346 50 347 40 347 176 347 59 348 41 348 148 348 134 349 41 349 178 349 74 350 41 350 181 350 41 351 74 351 70 351 50 352 42 352 141 352 42 353 50 353 135 353 42 354 135 354 72 354 66 355 42 355 151 355 79 356 43 356 158 356 117 357 43 357 142 357 43 358 117 358 136 358 43 359 136 359 121 359 72 360 44 360 151 360 44 361 72 361 137 361 118 362 44 362 179 362 44 363 118 363 46 363 45 364 103 364 118 364 45 365 118 365 138 365 123 366 45 366 184 366 103 367 45 367 168 367</p>
        </polylist>
      </mesh>
    </geometry>
  </library_geometries>
  <library_controllers/>
  <library_visual_scenes>
    <visual_scene id="Scene" name="Scene">
      <node id="Cube" name="Cube" type="NODE">
        <matrix sid="transform">1.357425 0 0 0 0 1.357425 0 0 0 0 1.357425 0 0 0 0 1</matrix>
        <instance_geometry url="#Cube-mesh" name="Cube">
          <bind_material>
            <technique_common>
              <instance_material symbol="Material-material" target="#Material-material"/>
            </technique_common>
          </bind_material>
        </instance_geometry>
      </node>
    </visual_scene>
  </library_visual_scenes>
  <scene>
    <instance_visual_scene url="#Scene"/>
  </scene>
</COLLADA>